Project 1
…
Summary statistics for ‘people_vaccinated’ numerical variable grouped by
both ‘stage’ and ‘tier’ categorical variables.

narcos %>% group_by(stage, tier) %>% summarize(mean_pplvac = mean(people_vaccinated, 
    na.rm = T), sd_pplvac = sd(people_vaccinated, na.rm = T), 
    quantile_pplvac = quantile(people_vaccinated, na.rm = T), 
    min_pplvac = min(people_vaccinated, na.rm = T), max_pplvac = max(people_vaccinated, 
        na.rm = T))

## # A tibble: 40 x 7
## # Groups:   stage, tier [8]
##    stage tier  mean_pplvac sd_pplvac quantile_pplvac min_pplvac max_pplvac
##    <chr> <chr>       <dbl>     <dbl>           <dbl>      <dbl>      <dbl>
##  1 high  fast    62275643. 14717082.       52855579    52855579   99565311
##  2 high  fast    62275643. 14717082.       52855579    52855579   99565311
##  3 high  fast    62275643. 14717082.       55547697    52855579   99565311
##  4 high  fast    62275643. 14717082.       64071674    52855579   99565311
##  5 high  fast    62275643. 14717082.       99565311    52855579   99565311
##  6 high  med     50141202.   719312.       48435536    48435536   50732997
##  7 high  med     50141202.   719312.       49772180    48435536   50732997
##  8 high  med     50141202.   719312.       50252588.   48435536   50732997
##  9 high  med     50141202.   719312.       50732997    48435536   50732997
## 10 high  med     50141202.   719312.       50732997    48435536   50732997
## # … with 30 more rows
…
As seen with the above graph, tiers were distributed evenly, with stages existing mostly between bosxplots except for the ‘high’ boxplot. There exists outliers, however mostly within the ‘high’ boxplot. Overall the ‘med’ boxlot was the most varied in terms of stages with all stages existing within the ‘med’ boxplot, signifying rapid change in vaccinations durin that time period.
k-means

library(cluster)

na.omit(avgdaily)

## # A tibble: 191 x 9
## # Groups:   tier [3]
##    Title date       total_vaccinati… people_vaccinat… daily_vaccinati…
##    <fct> <date>                <int>            <int>            <int>
##  1 Neon… 2021-04-02        153631404         99565311          2903730
##  2 Stud… 2021-04-02        153631404         99565311          2903730
##  3 Jeop… 2021-03-14        105703501         68884011          2541597
##  4 Jeop… 2021-03-14        105703501         68884011          2541597
##  5 iCar… 2021-03-12         98203893         64071674          2233006
##  6 iCar… 2021-03-12         98203893         64071674          2233006
##  7 iCar… 2021-03-12         98203893         64071674          2233006
##  8 iCar… 2021-03-06         85008094         55547697          2079147
##  9 iCar… 2021-03-06         85008094         55547697          2079147
## 10 iCar… 2021-03-06         85008094         55547697          2079147
## # … with 181 more rows, and 4 more variables: Inoculated <int>, tier <chr>,
## #   stage <chr>, avg_dailyvac <dbl>

avgdaily[complete.cases(avgdaily), ]

## # A tibble: 191 x 9
## # Groups:   tier [3]
##    Title date       total_vaccinati… people_vaccinat… daily_vaccinati…
##    <fct> <date>                <int>            <int>            <int>
##  1 Neon… 2021-04-02        153631404         99565311          2903730
##  2 Stud… 2021-04-02        153631404         99565311          2903730
##  3 Jeop… 2021-03-14        105703501         68884011          2541597
##  4 Jeop… 2021-03-14        105703501         68884011          2541597
##  5 iCar… 2021-03-12         98203893         64071674          2233006
##  6 iCar… 2021-03-12         98203893         64071674          2233006
##  7 iCar… 2021-03-12         98203893         64071674          2233006
##  8 iCar… 2021-03-06         85008094         55547697          2079147
##  9 iCar… 2021-03-06         85008094         55547697          2079147
## 10 iCar… 2021-03-06         85008094         55547697          2079147
## # … with 181 more rows, and 4 more variables: Inoculated <int>, tier <chr>,
## #   stage <chr>, avg_dailyvac <dbl>
…
